     5  angstroemd0  -1.01059542501829753E+02 (Ha)  FINAL CONFIGURATION
free  {format: xyz, source: SiF4.xyz}
 Si -2.15386253209699773E-07 -2.07301630704704539E-07 -7.05945703030916221E-09
 F  8.91815893716250141E-01  8.91815820018464711E-01  8.91815927566081412E-01
 F -8.91816523085348312E-01 -8.91816385765570874E-01  8.91817496539554888E-01
 F -8.91816342726942102E-01  8.91817449656556183E-01 -8.91816570657162577E-01
 F  8.91817293122910915E-01 -8.91816445784675116E-01 -8.91816581489995763E-01
 forces
Si      1.88619201824396697E-06  2.58532029239526111E-06 -5.08833729733846011E-06
F       2.34804231199869088E-06  1.56946333141624219E-06  3.72732128818398701E-07
F      -2.03983624277942734E-06 -1.84627450802977180E-06 -1.89441121772516878E-06
F      -4.39615154997148818E-06  1.65862866982314049E-06  3.18728193051163231E-06
F       2.20175346250825851E-06 -3.96713778560487284E-06  3.42273445573360000E-06
