     6  angstroemd0  -2.30604263986753111E+01 (Ha)  FINAL CONFIGURATION
free  {format: xyz, source: H3CCN.xyz}
 C -9.53913179153078609E-06 -9.60022888743104858E-06 -1.16885752983676694E+00
 C -1.18877752017599902E-05 -8.02844969583378666E-06  2.64828081480818045E-01
 N  2.20639127170157854E-05  2.41822101132884249E-05  1.41675220185135164E+00
 H  1.15599413862634491E-07  1.03012485947504184E+00 -1.55352589186407886E+00
 H  8.92109507691601800E-01 -5.15065422563170117E-01 -1.55355560456451691E+00
 H -8.92110260296738899E-01 -5.15065990443401955E-01 -1.55360099603660839E+00
 forces
C      -2.16966575574331136E-06 -4.71596628288420977E-07  4.43316016434141843E-07
C      -5.84426391392313776E-07 -1.83183896231509251E-06  6.46744004460097126E-07
N       7.72042824852758146E-07  2.06523268709507588E-06  6.76869507719463284E-06
H       1.97782100925744949E-07  5.33181184081848973E-07 -9.22835620072615199E-07
H       1.28674220288095036E-06 -5.48393900235142290E-07 -3.24619863926624721E-06
H       4.97525018476170387E-07  2.53415619661731353E-07 -3.68972083875003751E-06
