     4  angstroemd0  -1.24599870203478442E+01 (Ha)  FINAL CONFIGURATION
free  {format: xyz, source: HCCH.xyz}
 H -9.29515395183935448E-06 -9.29515406992942522E-06  2.69031921053024172E-03
 C  9.60538528619041699E-06  9.60538526262088667E-06  1.07602357541995253E+00
 C  8.66153924004115483E-06  8.66153965605657403E-06  2.27397680606277675E+00
 H -8.97177239338162766E-06 -8.97177084874806598E-06  3.34730920589507885E+00
 forces
H       5.01385532958177974E-07  5.01385511360984730E-07  3.72855994455135517E-07
C      -5.11209859834160324E-07 -5.11209823366325897E-07  9.84888580155838985E-07
C      -4.80585957381341422E-07 -4.80585967251740123E-07 -1.67927263364869097E-06
H       4.90410284257323878E-07  4.90410279257081291E-07  3.21528059037716466E-07
