     5  angstroemd0  -1.01030812557993485E+02 (Ha)  FINAL CONFIGURATION
free  {format: xyz, source: SiF4.xyz}
 Si -8.00610696199347270E-05 -8.00610696661807337E-05 -8.00610697993628411E-05
 F  8.98752231290978809E-01  8.98752231291018444E-01  8.98752231290878334E-01
 F -8.98738790259607012E-01 -8.98738790259534404E-01  8.98805410297665586E-01
 F -8.98738790259850595E-01  8.98805410298049390E-01 -8.98738790259327791E-01
 F  8.98805410298098906E-01 -8.98738790259867359E-01 -8.98738790259416720E-01
 forces
Si      1.73856131192730786E-06  1.73856134140151651E-06  1.73856068597227754E-06
F       3.09413687753948586E-06  3.09413693752156795E-06  3.09413658267222280E-06
F      -1.61679026817853229E-06 -1.61679019733012732E-06 -1.59911809344334886E-06
F      -1.61679005038423282E-06 -1.59911795649320271E-06 -1.61678951481861922E-06
F      -1.59911787090405594E-06 -1.61679012509975485E-06 -1.61678966038254644E-06
