     3  angstroemd0  -1.61699102035195779E+01 (Ha)  FINAL CONFIGURATION
free  {format: xyz, source: HCN.xyz}
 H  3.69861099700966297E-06  3.69861099711098251E-06 -1.28703089934544749E-03
 C -6.88101325106573712E-06 -6.88101325126221234E-06  1.07674860524977478E+00
 N  3.18240270880342334E-06  3.18240270889858326E-06  2.22453843722125333E+00
 forces
H      -1.05405253121093287E-06 -1.05405253124476591E-06  2.04804767676185009E-06
C       2.04412170810483983E-06  2.04412170817045227E-06  8.56571845570840047E-06
N      -9.90069176893906532E-07 -9.90069176925686362E-07 -1.06137661324702510E-05
