     6  angstroemd0  -2.30607301426716411E+01 (Ha)  FINAL CONFIGURATION
free  {format: xyz, source: H3CCN.xyz}
 C -7.10745526043689435E-07  7.22845888191634453E-06 -1.16878436273118136E+00
 C  1.67082275703736964E-06  3.48739848944455501E-05  2.65190157869865051E-01
 N -1.19037914134039340E-07 -4.30167778550707969E-05  1.41727983282359893E+00
 H -4.72269958592294657E-07  1.03004284703483084E+00 -1.55392182557324876E+00
 H  8.92053093539761255E-01 -5.15021132485776967E-01 -1.55386040178894258E+00
 H -8.92053462309119749E-01 -5.15020800214974539E-01 -1.55386313956989297E+00
 forces
C       6.57121996534080622E-07 -9.01322870763336042E-07 -6.67414045476167593E-07
C      -5.32170133693856925E-07  9.53148008245778847E-08 -3.67094030116657978E-07
N       2.36991202727091678E-07 -1.10554952509161849E-06  1.36573185100055050E-06
H      -5.61053782541254019E-08  9.46025590721096511E-07 -2.34877558805736089E-06
H      -5.29697753772598432E-07  5.38647021374419707E-07  1.00268549172293493E-06
H       2.23860066459408802E-07  4.26884982934861676E-07  1.01486632092670108E-06
