4   angstroem
free
N  -4.99081877114543e-07   2.45729507969709e-06   0.386800527227739
H   4.16364856162071e-07   0.945304313218467   0.000210007729707211
H  -0.818653955082346  -0.472653601750242   0.000209093956041049
H   0.818654037799368  -0.472653168763305   0.000208863394175403
