     2  angstroemd0  -1.98893359318726866E+01 (Ha)  FINAL CONFIGURATION
free  {format: xyz, source: N2.xyz}
 N  6.73604488779398710E-22  6.10483759577828093E-22  3.33454674092691907E-03
 N -4.08487885973330096E-22 -3.81145511747857372E-22  1.09666547710093076E+00
 forces
N       3.30872245021211070E-24  2.89513214393559686E-24 -2.54999964477420349E-08
N      -3.30872245021211070E-24 -2.89513214393559686E-24  2.54999964477420349E-08
