     2  angstroemd0  -1.98893498116508063E+01 (Ha)  FINAL CONFIGURATION
free  {format: xyz, source: N2.xyz}
 N  4.44543857635680724E-23  1.10210669090562655E-21  3.35507652594239144E-03
 N -6.33804507767009973E-23 -1.11748555188854968E-21  1.09664494731591589E+00
 forces
N       1.34416849539866997E-24  8.27180612553027675E-25 -5.99420552860330247E-07
N      -1.34416849539866997E-24 -8.27180612553027675E-25  5.99420552860330247E-07
