     4  angstroemd0  -1.24599157744852338E+01 (Ha)  FINAL CONFIGURATION
free  {format: xyz, source: HCCH.xyz}
 H -7.21823169842198100E-06 -7.21823003352078612E-06  2.70170123455296552E-03
 C  7.47024347561152678E-06  7.47023819599648071E-06  1.07604600332315936E+00
 C  6.70480791769535770E-06  6.70481390755854486E-06  2.27395411534677638E+00
 H -6.95682151387430533E-06 -6.95682207003424115E-06  3.34729808668385509E+00
 forces
H       3.25235495706572527E-07  3.25227911444066658E-07  3.86394856161027257E-07
C      -3.59283709547116560E-07 -3.59261330535082316E-07 -5.86629377778682228E-07
C      -2.53184158270571324E-07 -2.53207880476394743E-07  3.41447697407916232E-07
H       2.87232372111115357E-07  2.87241299567410454E-07 -1.41213175790261234E-07
