     2  angstroemd0  -2.16630755905157351E+01 (Ha)  FINAL CONFIGURATION
free  {format: xyz, source: CO.xyz}
 C -1.13188270167682091E-21 -9.26309502864672752E-22 -9.20378830722171028E-05
 O  1.12487574489121309E-21  9.33310229467209639E-22  1.12509203788307333E+00
 forces
C      -1.05879118406787542E-22 -1.32348898008484428E-22  3.08730921741440234E-06
O       1.05879118406787542E-22  1.32348898008484428E-22 -3.08730921741440234E-06
