     2  angstroemd0  -1.98893090232492433E+01 (Ha)  FINAL CONFIGURATION
free  {format: xyz, source: N2.xyz}
 N  1.79863605417044384E-22 -2.94982517367365824E-23  3.33901964586768955E-03
 N -2.04127764395211694E-22  2.84307716168345170E-23  1.09666100419598989E+00
 forces
N      -2.48154183765908302E-24 -6.61744490042422140E-24  2.38855510592550502E-07
N       2.48154183765908302E-24  6.61744490042422140E-24 -2.38855510592550502E-07
