     6  angstroemd0  -2.30607488040209745E+01 (Ha)  FINAL CONFIGURATION
free  {format: xyz, source: H3CCN.xyz}
 C  2.02396600242109283E-06  1.53781640442341813E-06 -1.16875863586204964E+00
 C  9.12415063636339651E-06 -1.63835656550923721E-05  2.65243626616115835E-01
 N -8.37667647975880060E-06  1.88434785909270400E-05  1.41735392646445901E+00
 H -1.65115913539442604E-06  1.03003425383254532E+00 -1.55391536304639111E+00
 H  8.92027226103229265E-01 -5.15019755778988397E-01 -1.55394581916673813E+00
 H -8.92028346384252990E-01 -5.15018495782896935E-01 -1.55393747397519588E+00
 forces
C       2.20619419278728033E-07  1.30827411083499230E-06 -7.10179343426988802E-07
C      -7.84986050992140499E-07 -1.28132297591319970E-06  1.99287605370492821E-06
N       2.84849928282270940E-07  9.72307517739332333E-07 -1.50434004826403430E-06
H       1.46146673216522661E-07 -3.57892274038893980E-07  7.61253053576014460E-07
H      -1.02151690059761286E-08 -2.74786151916263651E-07 -5.48219273725785188E-07
H       1.43585199220594940E-07 -3.66580226705967303E-07  8.60955813586414469E-09
