     4  angstroemd0  -1.24600090271778061E+01 (Ha)  FINAL CONFIGURATION
free  {format: xyz, source: HCCH.xyz}
 H -7.54418232428881066E-06 -7.54418123293316457E-06  2.69060434560240008E-03
 C  7.05954163805840756E-06  7.05953806863044699E-06  1.07601398863117170E+00
 C  8.57768898119740929E-06  8.57769308420991674E-06  2.27398647225493544E+00
 H -8.09305011395639279E-06 -8.09304991990715850E-06  3.34730884135663143E+00
 forces
H       3.59170623819808133E-07  3.59170663796160336E-07  2.13123409010263018E-07
C      -2.81309526243234560E-07 -2.81309595200761667E-07 -5.06943452998334142E-07
C      -5.23928629858544082E-07 -5.23928608508847512E-07  8.58528981736751575E-09
H       4.46067532281970562E-07  4.46067539913448896E-07  2.85234754170703563E-07
