     2  angstroemd0  -1.98892794399786297E+01 (Ha)  FINAL CONFIGURATION
free  {format: xyz, source: N2.xyz}
 N -6.87732932520179932E-23 -1.34060611939395584E-22  3.37463509716038560E-03
 N  7.28515774816571840E-23  1.39868380446887020E-22  1.09662538874468640E+00
 forces
N       0.00000000000000000E+00  0.00000000000000000E+00  7.76824530146491554E-07
N      -2.58493941422821148E-26 -2.58493941422821148E-26 -7.76824530146491554E-07
