     6  angstroemd0  -2.30606888850814720E+01 (Ha)  FINAL CONFIGURATION
free  {format: xyz, source: H3CCN.xyz}
 C -1.87756138939623190E-06 -8.62934620146036399E-06 -1.16881554220173300E+00
 C -5.71270644400951095E-06 -3.19398065400749954E-05  2.65117226001341910E-01
 N  6.20185105473098644E-06  4.14619332508771462E-05  1.41718071643939192E+00
 H  9.17081358652773782E-07  1.03008412273772731E+00 -1.55377384445401856E+00
 H  8.92068400383782656E-01 -5.15042114302677767E-01 -1.55383004846284645E+00
 H -8.92067929048362740E-01 -5.15042901215558735E-01 -1.55383824629193712E+00
 forces
C      -3.74447185464540530E-07  3.55345886531729062E-06  2.22485246640704445E-06
C      -2.94292615497036055E-07  1.51363439056231153E-06  4.56951745954758441E-07
N       2.22621783476484117E-07 -9.31991424940115886E-07 -3.80034811010587455E-06
H       5.63394544431442833E-08 -1.90109570290518618E-06  1.24817503207557951E-06
H       7.20303806022621868E-07 -1.19697033179341173E-06 -7.49176623321371045E-08
H      -3.30525242980673658E-07 -1.03703579624088963E-06 -5.47134719993728117E-08
