     3  angstroemd0  -1.71831043547742510E+01 (Ha)  FINAL CONFIGURATION
free  {format: xyz, source: H2O.xyz}
 O  4.61238814383887865E-23  6.47346851301199432E-08  1.16002794272743709E-01
 H  3.80529677165358148E-23  7.70321865759900914E-01 -4.75417385355312694E-01
 H  4.12527198985833357E-23 -7.70321930494585971E-01 -4.75417399219040249E-01
 forces
O      -7.76314682349929203E-24 -3.32266643888575753E-08  2.50179104139761201E-06
H      -6.07460762343629699E-24 -1.85311881199797394E-07 -1.26365068566803563E-06
H      -6.02290883515173276E-24  2.18538545588655009E-07 -1.23814035572958316E-06
