     3  angstroemd0  -1.61700217621352280E+01 (Ha)  FINAL CONFIGURATION
free  {format: xyz, source: HCN.xyz}
 H  4.41788868430135200E-06  4.41788868424726047E-06 -1.07406907737388896E-03
 C -8.29085299920753321E-06 -8.29085299910262140E-06  1.07673987742829369E+00
 N  3.87296476965352956E-06  3.87296476960271520E-06  2.22433420322076225E+00
 forces
H      -1.60312966514594154E-06 -1.60312966515057502E-06  1.45930774528992665E-06
C       3.10885960012727134E-06  3.10885960013625455E-06  7.59741905261769577E-06
N      -1.50572993498132938E-06 -1.50572993498567890E-06 -9.05672679790761502E-06
