     3  angstroemd0  -1.71811573097301142E+01 (Ha)  FINAL CONFIGURATION
free  {format: xyz, source: H2O.xyz}
 O  4.75867030745858173E-22 -1.99357114470794781E-06  1.15049046515238215E-01
 H -8.89785796855433747E-22  7.71140580956000576E-01 -4.74941272284030436E-01
 H -8.70360885056103694E-22 -7.71138587384855412E-01 -4.74939764532816722E-01
 forces
O      -1.00903235463282165E-22 -3.06864889480485775E-07 -2.20574652329096747E-06
H      -1.61196821871271268E-22  4.47823281350703125E-07  9.85479390167060432E-07
H      -1.61300219447840397E-22 -1.40958391870217986E-07  1.22026713312385240E-06
