     3  angstroemd0  -1.61690393249549587E+01 (Ha)  FINAL CONFIGURATION
free  {format: xyz, source: HCN.xyz}
 H  2.84881080608621500E-06  2.84881080607439042E-06 -9.75395443521577966E-04
 C -5.24643814704867545E-06 -5.24643814702579879E-06  1.07671700778800661E+00
 N  2.39762779570981346E-06  2.39762779569875798E-06  2.22425839922719737E+00
 forces
H      -7.39911993971698293E-07 -7.39911993954146606E-07  2.66574050699762389E-06
C       1.43482210714349421E-06  1.43482210710945852E-06  5.46645833202411940E-06
N      -6.94910113171795599E-07 -6.94910113155312444E-07 -8.13219883902174287E-06
