     2  angstroemd0  -2.16641387812192150E+01 (Ha)  FINAL CONFIGURATION
free  {format: xyz, source: CO.xyz}
 C  1.89701082408831496E-21  1.68291136934906803E-21 -1.63376069676524169E-04
 O -2.17494576849061138E-21 -1.89336190063144223E-21  1.12516337606969130E+00
 forces
C      -1.32348898008484428E-23 -2.97785020519089963E-23  7.72095058554356228E-07
O      -2.64697796016968856E-23 -1.98523347012726642E-23 -7.72095058554356228E-07
