     4  angstroemd0  -1.17019153089097259E+01 (Ha)  FINAL CONFIGURATION
free  {format: xyz, source: NH3.xyz}
 N -1.30948737906850588E-06  1.58652482340672623E-04  3.75072959714616461E-01
 H  1.42566156667162755E-06  9.52365070468307873E-01  4.15875923262124143E-03
 H -8.24539432045609422E-01 -4.76262702902769453E-01  4.09865963058500798E-03
 H  8.24539352363701683E-01 -4.76261006543247545E-01  4.09811406453448965E-03
 forces
N      -2.72864891336176660E-07  4.45507716971292307E-07 -2.93649104366472602E-06
H       3.47994468144352840E-08 -5.31446564138553137E-07  1.09492870801395640E-06
H      -2.23960776713206358E-07  9.16518016926654792E-08  9.82166564688794424E-07
H       4.62026221234947794E-07 -5.71295452540331879E-09  8.59395770961976047E-07
