     5  angstroemd0  -8.03400683922308723E+00 (Ha)  FINAL CONFIGURATION
free  {format: xyz, source: CH4.xyz}
 C  3.29603675483159376E-07  3.29603606048979989E-07  3.29605312685236247E-07
 H  6.32999744258297747E-01  6.32999744258314068E-01  6.32999744258714747E-01
 H -6.32999604652230041E-01 -6.32999604652206060E-01  6.32999135442899097E-01
 H  6.32999135440241223E-01 -6.32999604649965630E-01 -6.32999604653466053E-01
 H -6.32999604649983616E-01  6.32999135440251659E-01 -6.32999604653460390E-01
 forces
C      -1.41280474998533767E-07 -1.41280188898258772E-07 -1.41282633368178938E-07
H       1.21671147493628893E-07  1.21671091372836710E-07  1.21671552693932717E-07
H      -5.98448981450737199E-08 -5.98449561531545055E-08  1.39299500072946500E-07
H       1.39299532301301272E-07 -5.98453935807588498E-08 -5.98442241600277857E-08
H      -5.98453066513227050E-08  1.39299447259335378E-07 -5.98441952386724662E-08
