     2  angstroemd0  -2.16591925348288825E+01 (Ha)  FINAL CONFIGURATION
free  {format: xyz, source: CO.xyz}
 C -1.18914479133181719E-19 -2.74989098447941193E-19  9.78611389015282226E-05
 O  1.36508970530187467E-19  2.71400718890733134E-19  1.12490213886109891E+00
 forces
C       6.77626357803440271E-21  0.00000000000000000E+00 -2.14297873371571690E-06
O      -3.38813178901720136E-21  0.00000000000000000E+00  2.14297873371571690E-06
