     5  angstroemd0  -1.01059542529309169E+02 (Ha)  FINAL CONFIGURATION
free  {format: xyz, source: SiF4.xyz}
 Si  3.02457065318965838E-07  3.37591226395128318E-07  3.29099607885879896E-07
 F  8.91816773114770145E-01  8.91816795614165159E-01  8.91816921459984813E-01
 F -8.91816153121979482E-01 -8.91816141711255783E-01  8.91815056727736089E-01
 F -8.91816050600456323E-01  8.91815155867966891E-01 -8.91816048092741953E-01
 F  8.91815134001686105E-01 -8.91816039595315302E-01 -8.91816048497696023E-01
 forces
Si      3.34834096481691143E-07 -3.31040262511625293E-07  6.13221873810313486E-07
F       5.87680191377640041E-07  5.59221329083022627E-07  1.63163779845033446E-06
F      -7.19410077462873935E-07 -2.79255904030201322E-07  1.48150750814815522E-06
F      -1.69616350741401555E-06  1.38584196979465118E-06 -1.82380469867727876E-06
F       1.49305929701755878E-06 -1.33476713233584656E-06 -1.90256248173152514E-06
