     5  angstroemd0  -8.03400679881822199E+00 (Ha)  FINAL CONFIGURATION
free  {format: xyz, source: CH4.xyz}
 C -4.94733137679016267E-07 -4.94748613005146100E-07 -4.92261774984585028E-07
 H  6.32999076415973083E-01  6.32999076418481521E-01  6.32999076011715234E-01
 H -6.32999381489057988E-01 -6.32999381486331281E-01  6.33000180893523279E-01
 H  6.33000181691551922E-01 -6.32999381880099965E-01 -6.32999382320480142E-01
 H -6.32999381885329782E-01  6.33000181696563025E-01 -6.32999382322983140E-01
 forces
C       1.30638731177634575E-07  1.30717368694515933E-07  1.18492697282569014E-07
H       1.06935567078155151E-07  1.06920932917840362E-07  1.09172131246625215E-07
H      -1.25718905421644996E-07 -1.25734355913850000E-07  1.60908552842735431E-08
H       1.23801374407677684E-08 -1.24260214832335931E-07 -1.21882458939346277E-07
H      -1.24235530274912554E-07  1.23562691338296436E-08 -1.21873224874121498E-07
