     2  angstroemd0  -1.98886226329282323E+01 (Ha)  FINAL CONFIGURATION
free  {format: xyz, source: N2.xyz}
 N -6.21535753883689999E-22 -1.07913755901089737E-21  3.16613590942633463E-03
 N  5.93318557279837908E-22  1.05443574247375797E-21  1.09683388793243264E+00
 forces
N       3.30872245021211070E-24  3.30872245021211070E-24  7.14540047019873725E-07
N      -3.30872245021211070E-24 -3.30872245021211070E-24 -7.14540047019873725E-07
