     6  angstroemd0  -2.30209699438820223E+01 (Ha)  FINAL CONFIGURATION
free  {format: xyz, source: H3CNC.xyz}
 N  7.16285402815177857E-02 -1.37374562122600830E-04  2.93765147626525618E-04
 C -1.32529408817549976E+00 -1.48999226458388880E-04  4.67163115604383352E-05
 C  1.23792993842954102E+00  1.11457281345269781E-04 -2.45963836741157186E-04
 H -1.70650647278410994E+00  4.63458660540241041E-01  9.21666285913448347E-01
 H -1.70619183077779124E+00  5.66293298714203530E-01 -8.62365324463034932E-01
 H -1.70626604255627456E+00 -1.03017703630738100E+00 -5.94954472380192084E-02
 forces
N      -1.30514893529642020E-06 -5.25301610349389751E-07  1.72069130740849012E-06
C       2.38791361912992088E-07 -7.24664747322102006E-08 -4.95703781954374285E-07
C       6.36124098340195004E-07  1.90213019038153667E-06 -1.61258186147043001E-06
H       4.06666138220551016E-07 -2.57509387445370868E-06  2.43628164128643846E-07
H       2.80304990063125496E-06  9.49085298479771294E-07 -1.98929859828206997E-06
H      -2.77948256380857277E-06  3.21646470673998759E-07  2.13326477016974654E-06
