     4  angstroemd0  -1.24597786082267614E+01 (Ha)  FINAL CONFIGURATION
free  {format: xyz, source: HCCH.xyz}
 H -3.75479835438492475E-05 -3.75479828600752805E-05  2.81546825751055781E-03
 C  3.73325221624150802E-05  3.73325213976036008E-05  1.07609326919087134E+00
 C  3.80107077793268705E-05  3.80107072659786294E-05  2.27390901070084750E+00
 H -3.77952482168820661E-05 -3.77952458035069497E-05  3.34718215843911704E+00
 forces
H      -8.67254018657770109E-07 -8.67253981634288634E-07  1.06361525972568113E-06
C       9.72505607076928079E-07  9.72505545409420261E-07 -3.68344858951769810E-07
C       6.44715082075137983E-07  6.44715097194137272E-07 -2.10013364215693221E-06
H      -7.49966670494295952E-07 -7.49966660969269005E-07  1.40486324138302073E-06
