     2  angstroemd0  -2.16619343992259950E+01 (Ha)  FINAL CONFIGURATION
free  {format: xyz, source: CO.xyz}
 C -8.05156711981698607E-21 -7.67617625484627520E-21 -3.61561532143696610E-04
 O  6.36934722228686755E-21  5.88121597794489367E-21  1.12536156153214351E+00
 forces
C      -1.27054942088145051E-21  1.11173074327126920E-21 -3.23525025505699837E-06
O       1.27054942088145051E-21 -1.11173074327126920E-21  3.23525025505699837E-06
