     4  angstroemd0  -1.17028151482007949E+01 (Ha)  FINAL CONFIGURATION
free  {format: xyz, source: NH3.xyz}
 N  5.82325757163326019E-07  4.87680824516565029E-05  3.75756560436496134E-01
 H -2.14127476187334096E-07  9.51660152723431074E-01  3.90302941805620394E-03
 H -8.24110009465502946E-01 -4.75854428593944223E-01  3.88436052356190380E-03
 H  8.24109677759502834E-01 -4.75854478707306572E-01  3.88454226424244081E-03
 forces
N      -9.62771031532125545E-07 -1.45507657435400483E-05 -3.62496826937004033E-06
H       1.05634455228632802E-07  6.68545670836197854E-06 -2.58194605708875582E-06
H       2.17090127832133637E-06  4.11914653299189496E-06  3.32067545244599135E-06
H      -1.31376470201784369E-06  3.74616250218617652E-06  2.88623887401280225E-06
