     5  angstroemd0  -8.03387975879031302E+00 (Ha)  FINAL CONFIGURATION
free  {format: xyz, source: CH4.xyz}
 C  5.44879262427606825E-08  5.44878692216881158E-08  5.44882249197893550E-08
 H  6.33085031676739463E-01  6.33085031676750010E-01  6.33085031676725474E-01
 H -6.33084937514910795E-01 -6.33084937514900803E-01  6.33084788865149406E-01
 H  6.33084788865288295E-01 -6.33084937515025370E-01 -6.33084937515045576E-01
 H -6.33084937515043467E-01  6.33084788865306836E-01 -6.33084937515054125E-01
 forces
C      -3.87777354678189601E-08 -3.87774421038547749E-08 -3.87794413391613468E-08
H       5.24472550807320982E-08  5.24471977824512309E-08  5.24475697075514685E-08
H      -4.49608891366018131E-08 -4.49609488773566255E-08  7.62525436439455464E-08
H       7.62520168259017304E-08 -4.49607366859308838E-08 -4.49603508276493387E-08
H      -4.49606473022130487E-08  7.62519298846910600E-08 -4.49603211846863425E-08
