     5  angstroemd0  -8.03384820544347278E+00 (Ha)  FINAL CONFIGURATION
free  {format: xyz, source: CH4.xyz}
 C  1.39681498196374216E-06  1.39681499108505457E-06  1.39681397995960459E-06
 H  6.33007483584264175E-01  6.33007483584258179E-01  6.33007483584519415E-01
 H -6.33005326942161162E-01 -6.33005326942160385E-01  6.33001773485331931E-01
 H  6.33001773485114216E-01 -6.33005326942197799E-01 -6.33005326941915580E-01
 H -6.33005326942198909E-01  6.33001773485108998E-01 -6.33005326941916024E-01
 forces
C       4.11385536003505115E-07  4.11385507486667214E-07  4.11388813774685920E-07
H       2.07130306524632171E-07  2.07130312502032083E-07  2.07129729688800574E-07
H      -1.87524596927045344E-07 -1.87524588229661411E-07 -2.43467225914156061E-07
H      -2.43466171746970221E-07 -1.87525065573055618E-07 -1.87525658982824278E-07
H      -1.87525073854121667E-07 -2.43466166185982029E-07 -1.87525658566506367E-07
