     6  angstroemd0  -2.30602721119219893E+01 (Ha)  FINAL CONFIGURATION
free  {format: xyz, source: H3CCN.xyz}
 C -1.20019481268187887E-06  3.09654750186369107E-04 -1.16854626780125814E+00
 C -2.16978166309660076E-06  6.39519109082130875E-04  2.65956260559428392E-01
 N  1.10634294124217870E-06 -1.01674950959489401E-03  1.41828624646503454E+00
 H  2.13088105540295416E-07  1.02972222619224363E+00 -1.55568113948044662E+00
 H  8.91870675970844684E-01 -5.14827795216347361E-01 -1.55398804211833852E+00
 H -8.91868625425417005E-01 -5.14826855325570709E-01 -1.55398679659423156E+00
 forces
C       1.99239589900342733E-06  1.29266041723636867E-05 -1.87050970515230762E-06
C       6.00159903366944534E-07  7.12843311202517727E-06  1.40821456103355871E-06
N      -2.70889343608126681E-07 -3.04332621185046517E-06  1.58847964694647417E-06
H      -1.23484256979700725E-07 -9.61561331224009351E-07  5.39531105107647034E-06
H      -4.18601296244962249E-06 -7.46116966074085089E-06 -2.66914287598186639E-06
H       1.98783076066707829E-06 -8.58898008057356074E-06 -3.85235267792224431E-06
