     5  angstroemd0  -8.03392862366665561E+00 (Ha)  FINAL CONFIGURATION
free  {format: xyz, source: CH4.xyz}
 C  6.11657539975807504E-07  6.11654879662882391E-07  6.11682859914417889E-07
 H  6.32962008610054472E-01  6.32962008610493898E-01  6.32962008605837068E-01
 H -6.32960274616709007E-01 -6.32960274616241603E-01  6.32957928962029959E-01
 H  6.32957928970186767E-01 -6.32960274620181340E-01 -6.32960274625151809E-01
 H -6.32960274621072516E-01  6.32957928971049300E-01 -6.32960274625574915E-01
 forces
C       2.82296214922730810E-07  2.82309209269277684E-07  2.82176712400393414E-07
H       7.78481582389215651E-08  7.78457382726617291E-08  7.78701652562197090E-08
H      -1.02100529301151124E-07 -1.02103041793226279E-07 -1.55922872478254944E-07
H      -1.55959775561366804E-07 -1.02088145517449652E-07 -1.02062784952299147E-07
H      -1.02084068299134249E-07 -1.55963760231263297E-07 -1.02061220226058913E-07
