molecule,value,id_reference,notes
H2O,1.57,1,PBE within NRMOL using custom Gaussian basis sets
NF3,3.07,1,PBE within NRMOL using custom Gaussian basis sets
HCCH,3.56,1,PBE within NRMOL using custom Gaussian basis sets
HCN,2.62,1,PBE within NRMOL using custom Gaussian basis sets
CH4,2.63,1,PBE within NRMOL using custom Gaussian basis sets
SiF4,3.72,1,PBE within NRMOL using custom Gaussian basis sets
H3CNC,4.87,1,PBE within NRMOL using custom Gaussian basis sets
H3CCN,4.49,1,PBE within NRMOL using custom Gaussian basis sets
CH4,2.62,4,"GGA, Gaussian BAS6"
CH4,2.68,4,"LDA, Gaussian BAS6"
H2O,1.58,4,"GGA, Gaussian BAS6"
H2O,1.6,4,"LDA, Gaussian BAS6"
HCCH,3.52,4,"GGA, Gaussian BAS6"
HCCH,3.58,4,"LDA, Gaussian BAS6"
