     4  angstroemd0  -8.24042061484235546E+01 (Ha)  FINAL CONFIGURATION
free  {format: xyz, source: NF3.xyz}
 N -7.68053915505571850E-07  2.01548712266397381E-04  6.08388957435960664E-01
 F -5.48351356564592199E-07  1.22965656962443082E+00 -2.72948414917974919E-03
 F -1.06452781429006205E+00 -6.14928363058599103E-01 -2.82609257399588087E-03
 F  1.06452913069533461E+00 -6.14929755278099122E-01 -2.82650233677809700E-03
 forces
N       6.14275165011170700E-08  2.28794294815961667E-06  1.48186118115337422E-06
F      -7.83252715578757765E-08  4.72276598031819360E-06  2.64202825361448362E-07
F      -8.26487286316037445E-06 -3.45524106460137884E-06 -8.90662764381649889E-07
F       8.28177061821713265E-06 -3.55546786387643397E-06 -8.55401242133173751E-07
