     5  angstroemd0  -1.01060658887373492E+02 (Ha)  FINAL CONFIGURATION
free  {format: xyz, source: SiF4.xyz}
 Si -3.36910001746016745E-08 -3.73462379503835749E-08 -3.77982056122522569E-08
 F  8.92171439976686909E-01  8.92171441069376292E-01  8.92171438291458951E-01
 F -8.92171497502179389E-01 -8.92171492034930402E-01  8.92171582181794598E-01
 F -8.92171514163359713E-01  8.92171601625657229E-01 -8.92171489033619314E-01
 F  8.92171605257580769E-01 -8.92171513316986298E-01 -8.92171493654716485E-01
 forces
Si     -5.10727041790464680E-07 -4.36613410555319484E-07 -6.44754937000603897E-07
F       4.37251530949541052E-06  4.35040384045717698E-06  4.65445886133621006E-06
F      -4.05195893781107294E-06 -4.16743651021802267E-06  4.62460535203567331E-06
F      -3.55686539787986981E-06  3.82545682212833176E-06 -4.36742075372826463E-06
F       3.74703606798599711E-06 -3.57181074181216753E-06 -4.26688852264301431E-06
