     3  angstroemd0  -1.71825218638430073E+01 (Ha)  FINAL CONFIGURATION
free  {format: xyz, source: H2O.xyz}
 O -1.39238228335610844E-23 -1.33347598308569426E-07  1.16109915438427289E-01
 H -7.87522810878456254E-23  7.70255952361020291E-01 -4.75471007426483905E-01
 H -7.65801786343420921E-23 -7.70255819013421883E-01 -4.75470898313552603E-01
 forces
O       3.33980095677607002E-23  2.24333349302548572E-07 -1.43454269600702621E-06
H       4.17726209339278976E-23 -1.32319289260504035E-08  8.03418706499994332E-07
H       4.38405724653104668E-23 -2.11101420376498171E-07  6.31123989507025207E-07
