     3  angstroemd0  -1.71825416082680356E+01 (Ha)  FINAL CONFIGURATION
free  {format: xyz, source: H2O.xyz}
 O -3.61020735698297262E-22  4.89640439301026073E-07  1.16108486817226408E-01
 H -8.56089473744542059E-22  7.70270155972010206E-01 -4.75470038994984023E-01
 H -8.54458485416884198E-22 -7.70270645612448734E-01 -4.75470438123851591E-01
 forces
O       2.78950553241039197E-23 -2.19204110551243573E-06 -5.51500092365639102E-06
H      -9.33550869448518577E-23  6.08544555833498659E-07  1.91574344646511043E-06
H      -9.33486245963162872E-23  1.58349654967893655E-06  3.59925747719128059E-06
